Presentation-exercise – Shaun van den Hurk's Data Analysis Portfolio
…
# Identify all elimination columns
elim_columns <- grep("ELIMINATION-", names(bachelorette_winner_check), value = TRUE)

# Find contestants who have "W" in any elimination column
winners <- bachelorette_winner_check %>%
  filter(if_any(all_of(elim_columns), ~ . == "W"))

# Select relevant columns: SHOW, SEASON, CONTESTANT, and elimination columns where "W" appeared
winner_columns <- c("SHOW", "SEASON", "CONTESTANT", elim_columns)
winners <- winners %>% select(all_of(winner_columns))

# Print the identified winners
print(winners)

# A tibble: 33 × 13
   SHOW        SEASON CONTESTANT `ELIMINATION-1` `ELIMINATION-2` `ELIMINATION-3`
   <chr>        <dbl> <chr>      <chr>           <chr>           <chr>          
 1 Bacheloret…     13 13_BRYAN_A R1              <NA>            <NA>           
 2 Bacheloret…     12 12_JORDAN… R1              <NA>            <NA>           
 3 Bacheloret…     11 11_SHAWN_B R1              <NA>            R              
 4 Bacheloret…     10 10_JOSH_M  <NA>            <NA>            R              
 5 Bacheloret…      9 09_CHRIS_S <NA>            <NA>            R              
 6 Bacheloret…      8 08_JEF_H   <NA>            R               <NA>           
 7 Bacheloret…      7 07_JP_R    <NA>            <NA>            R              
 8 Bacheloret…      6 06_ROBERT… R1              <NA>            R              
 9 Bacheloret…      5 05_ED_S    <NA>            <NA>            R              
10 Bacheloret…      4 04_JESSE_C R1              <NA>            <NA>           
# ℹ 23 more rows
# ℹ 7 more variables: `ELIMINATION-4` <chr>, `ELIMINATION-5` <chr>,
#   `ELIMINATION-6` <chr>, `ELIMINATION-7` <chr>, `ELIMINATION-8` <chr>,
#   `ELIMINATION-9` <chr>, `ELIMINATION-10` <chr>
…
