tidytuesday-exercise – Shaun van den Hurk’s Data Analysis Portfolio
…
The footnote column still has 168 NA values. We got rid of many of the NA values from the score column, but still have 27 NA values in the score column. With only 27 values we will inspect them directly.

clean_state_cleaning |> filter(is.na(score)) 

# A tibble: 27 × 8
   state condition  measure_id measure_name score footnote start_date end_date  
   <chr> <chr>      <chr>      <chr>        <dbl> <chr>    <date>     <date>    
 1 AK    Emergency… OP_18b_VE… Average tim…    NA 25, 26   2023-04-01 2024-03-31
 2 AK    Emergency… OP_18c_VE… Average tim…    NA 25       2023-04-01 2024-03-31
 3 DC    Emergency… OP_18b_LO… Average tim…    NA 25, 26   2023-04-01 2024-03-31
 4 DC    Emergency… OP_18c_LO… Average tim…    NA 25       2023-04-01 2024-03-31
 5 DE    Emergency… OP_18b_LO… Average tim…    NA 25, 26   2023-04-01 2024-03-31
 6 DE    Emergency… OP_18c_LO… Average tim…    NA 25       2023-04-01 2024-03-31
 7 MT    Emergency… OP_18b_VE… Average tim…    NA 25, 26   2023-04-01 2024-03-31
 8 MT    Emergency… OP_18c_VE… Average tim…    NA 25       2023-04-01 2024-03-31
 9 ND    Emergency… OP_18b_HI… Average tim…    NA 25, 26   2023-04-01 2024-03-31
10 ND    Emergency… OP_18c_HI… Average tim…    NA 25       2023-04-01 2024-03-31
# ℹ 17 more rows
…
We are happy that we have removed the NA values and seem to have kept our important information.

We can see that the measure ID and name are the main variable used to differentiate observations. This defines what the outcome and allows us to assess what is actually being measured. However, there is a substantial mix of different measures and observations which make it difficult to assert anything in this current form. Therefore, we need to get an overview of how many different conditions there are and what they evaluate so we can decide what to focus on (the data dictionary tells us that there should be 22 Unique IDs and 21 unique names).

We will select the unique IDs and then get the corresponding name to help us understand what they are.

measure_lookup <- care_state_final |> select(measure_id, measure_name) |> distinct()

measure_lookup

# A tibble: 22 × 2
   measure_id           measure_name                                            
   <chr>                <chr>                                                   
 1 HCP_COVID_19         Percentage of healthcare personnel who are up to date w…
 2 IMM_3                Healthcare workers given influenza vaccination Higher p…
 3 OP_18b               Average (median) time patients spent in the emergency d…
 4 OP_18b_HIGH_MIN      Average time patients spent in the emergency department…
 5 OP_18b_LOW_MIN       Average time patients spent in the emergency department…
 6 OP_18b_MEDIUM_MIN    Average time patients spent in the emergency department…
 7 OP_18b_VERY_HIGH_MIN Average time patients spent in the emergency department…
 8 OP_18c               Average (median) time patients spent in the emergency d…
 9 OP_18c_HIGH_MIN      Average time patients spent in the emergency department…
10 OP_18c_LOW_MIN       Average time patients spent in the emergency department…
# ℹ 12 more rows
…
Assessing models: We collect performance metrics (RMSE, MAE, R²) from each model to evaluate predictive accuracy and fit quality.

# Collect metrics
lm_metrics     <- collect_metrics(lm_res) |> mutate(model = "Linear Regression")
lasso_metrics  <- collect_metrics(lasso_res) |> mutate(model = "LASSO")
rf_metrics     <- collect_metrics(rf_res) |> mutate(model = "Random Forest")

# Combine into one table
all_model_metrics <- bind_rows(lm_metrics, lasso_metrics, rf_metrics)

# View metrics
all_model_metrics

# A tibble: 93 × 9
   .metric .estimator   mean     n std_err .config         model   penalty  mtry
   <chr>   <chr>       <dbl> <int>   <dbl> <chr>           <chr>     <dbl> <int>
 1 mae     standard   78.0      10  3.95   Preprocessor1_… Line… NA           NA
 2 rmse    standard   92.6      10  4.66   Preprocessor1_… Line… NA           NA
 3 rsq     standard    0.319    10  0.0492 Preprocessor1_… Line… NA           NA
 4 mae     standard   77.9      10  3.94   Preprocessor1_… LASSO  1.01e-10    NA
 5 rmse    standard   92.5      10  4.65   Preprocessor1_… LASSO  1.01e-10    NA
 6 rsq     standard    0.319    10  0.0495 Preprocessor1_… LASSO  1.01e-10    NA
 7 mae     standard   77.9      10  3.94   Preprocessor1_… LASSO  6.08e-10    NA
 8 rmse    standard   92.5      10  4.65   Preprocessor1_… LASSO  6.08e-10    NA
 9 rsq     standard    0.319    10  0.0495 Preprocessor1_… LASSO  6.08e-10    NA
10 mae     standard   77.9      10  3.94   Preprocessor1_… LASSO  2.27e- 9    NA
# ℹ 83 more rows
…
