CDC Data Exercise – Shaun van den Hurk’s Data Analysis Portfolio
…
view(cdc_dataset)
print(cdc_dataset)

# A tibble: 12,597 × 82
   `Week Ending Date` `Geographic aggregation` `Hospital Reporting Days`
   <date>             <chr>                                        <dbl>
 1 2020-08-08         AK                                              98
 2 2020-08-15         AK                                              98
 3 2020-08-22         AK                                              98
 4 2020-08-29         AK                                              97
 5 2020-09-05         AK                                              97
 6 2020-09-12         AK                                              98
 7 2020-09-19         AK                                              98
 8 2020-09-26         AK                                              96
 9 2020-10-03         AK                                              97
10 2020-10-10         AK                                              98
# ℹ 12,587 more rows
# ℹ 79 more variables: `Percent Hospital Reporting Days` <dbl>,
#   `Number Hospitals Reporting Adult COVID-19 Admissions` <dbl>,
#   `Number Hospitals Reporting Pediatric COVID-19 Admissions` <dbl>,
#   `Number Hospitals Reporting Influenza Admissions` <dbl>,
#   `Number Hospitals Reporting Prevalent Influenza Hospitalizations` <dbl>,
#   `Number Hospitals Reporting Hospitalized Influenza ICU Patients` <dbl>, …
…
 Weekly Average Inpatient Beds Occupied Weekly Average ICU Beds Occupied
 Min.   :10065                          Min.   :1210                    
 1st Qu.:13769                          1st Qu.:2315                    
 Median :14365                          Median :2395                    
 Mean   :14415                          Mean   :2377                    
 3rd Qu.:15170                          3rd Qu.:2484                    
 Max.   :16660                          Max.   :2828                    

view(cdc_ga_mandatory_refined)
print(cdc_ga_mandatory_refined)

# A tibble: 195 × 12
   `Week Ending Date` `Geographic aggregation` Number Hospitals Reporting Adul…¹
   <date>             <chr>                                                <dbl>
 1 2020-08-08         GA                                                      87
 2 2020-08-15         GA                                                     130
 3 2020-08-22         GA                                                     130
 4 2020-08-29         GA                                                     131
 5 2020-09-05         GA                                                     133
 6 2020-09-12         GA                                                     134
 7 2020-09-19         GA                                                     129
 8 2020-09-26         GA                                                     131
 9 2020-10-03         GA                                                     139
10 2020-10-10         GA                                                     139
# ℹ 185 more rows
# ℹ abbreviated name: ¹​`Number Hospitals Reporting Adult COVID-19 Admissions`
# ℹ 9 more variables: `Number Hospitals Reporting Influenza Admissions` <dbl>,
#   `Weekly Total Adult COVID-19 Admissions` <dbl>,
#   `Weekly Total Influenza Admissions` <dbl>,
#   `Weekly Average Hospitalized COVID-19 ICU Patients` <dbl>,
#   `Weekly Average Hospitalized Influenza ICU Patients` <dbl>, …
…
